<svg width="10" height="18" viewBox="0 0 10 18" fill="none" xmlns="http://www.w3.org/2000/svg">
<path d="M8.60001 16.2L2.10711 9.70712C1.71659 9.3166 1.71659 8.68344 2.10711 8.29291L8.60001 1.80002" stroke="#A5A5A5" stroke-width="2.4" stroke-linecap="round"/>
</svg>
