<svg width="12" height="7" viewBox="0 0 12 7" fill="none" xmlns="http://www.w3.org/2000/svg">
<path fill-rule="evenodd" clip-rule="evenodd" d="M0.185737 6.80402C0.433387 7.06533 0.834906 7.06533 1.08256 6.80402L6 1.61539L10.9174 6.80402C11.1651 7.06533 11.5666 7.06533 11.8143 6.80402C12.0619 6.54271 12.0619 6.11905 11.8143 5.85774L6.44841 0.19598C6.20076 -0.0653267 5.79924 -0.0653267 5.55159 0.19598L0.185737 5.85774C-0.0619124 6.11905 -0.0619124 6.54271 0.185737 6.80402Z" fill="black"/>
</svg>
